This file contains any messages produced by compilers while
running configure, to aid debugging if configure makes a mistake.

It was created by apertium-ces configure 0.1.0, which was
generated by GNU Autoconf 2.69.  Invocation command line was

  $ ./configure 

## --------- ##
## Platform. ##
## --------- ##

hostname = apvb
uname -m = i686
uname -r = 3.13.0-37-generic
uname -s = Linux
uname -v = #64-Ubuntu SMP Mon Sep 22 21:30:01 UTC 2014

/usr/bin/uname -p = unknown
/bin/uname -X     = unknown

/bin/arch              = unknown
/usr/bin/arch -k       = unknown
/usr/convex/getsysinfo = unknown
/usr/bin/hostinfo      = unknown
/bin/machine           = unknown
/usr/bin/oslevel       = unknown
/bin/universe          = unknown

PATH: /usr/local/sbin
PATH: /usr/local/bin
PATH: /usr/sbin
PATH: /usr/bin
PATH: /sbin
PATH: /bin
PATH: /usr/local/bin


## ----------- ##
## Core tests. ##
## ----------- ##

configure:1779: checking for a BSD-compatible install
configure:1847: result: /usr/bin/install -c
configure:1858: checking whether build environment is sane
configure:1913: result: yes
configure:2064: checking for a thread-safe mkdir -p
configure:2103: result: /bin/mkdir -p
configure:2110: checking for gawk
configure:2126: found /usr/bin/gawk
configure:2137: result: gawk
configure:2148: checking whether make sets $(MAKE)
configure:2170: result: yes
configure:2199: checking whether make supports nested variables
configure:2216: result: yes
configure:2333: checking whether ln -s works
configure:2340: result: no, using cp -pR
configure:2348: checking for gawk
configure:2375: result: gawk
configure:2442: checking for pkg-config
configure:2460: found /usr/bin/pkg-config
configure:2472: result: /usr/bin/pkg-config
configure:2497: checking pkg-config is at least version 0.9.0
configure:2500: result: yes
configure:2510: checking for APERTIUM
configure:2517: $PKG_CONFIG --exists --print-errors "apertium >= 3.2.0"
configure:2520: $? = 0
configure:2534: $PKG_CONFIG --exists --print-errors "apertium >= 3.2.0"
configure:2537: $? = 0
configure:2755: result: yes
configure:2786: checking for lt-print
configure:2804: found /usr/bin/lt-print
configure:2817: result: /usr/bin/lt-print
configure:2836: checking for cg-comp
configure:2854: found /usr/bin/cg-comp
configure:2867: result: /usr/bin/cg-comp
configure:2886: checking for pkg-config
configure:2917: result: /usr/bin/pkg-config
configure:3082: checking that generated files are newer than configure
configure:3088: result: done
configure:3096: creating ./config.status

## ---------------------- ##
## Running config.status. ##
## ---------------------- ##

This file was extended by apertium-ces config.status 0.1.0, which was
generated by GNU Autoconf 2.69.  Invocation command line was

  CONFIG_FILES    = 
  CONFIG_HEADERS  = 
  CONFIG_LINKS    = 
  CONFIG_COMMANDS = 
  $ ./config.status 

on apvb

config.status:752: creating Makefile
config.status:752: creating apertium-ces.pc

## ---------------- ##
## Cache variables. ##
## ---------------- ##

ac_cv_env_APERTIUM_CFLAGS_set=
ac_cv_env_APERTIUM_CFLAGS_value=
ac_cv_env_APERTIUM_LIBS_set=
ac_cv_env_APERTIUM_LIBS_value=
ac_cv_env_PKG_CONFIG_LIBDIR_set=
ac_cv_env_PKG_CONFIG_LIBDIR_value=
ac_cv_env_PKG_CONFIG_PATH_set=set
ac_cv_env_PKG_CONFIG_PATH_value=:/usr/local/share/pkgconfig:/usr/local/lib/pkgconfig
ac_cv_env_PKG_CONFIG_set=
ac_cv_env_PKG_CONFIG_value=
ac_cv_env_build_alias_set=
ac_cv_env_build_alias_value=
ac_cv_env_host_alias_set=
ac_cv_env_host_alias_value=
ac_cv_env_target_alias_set=
ac_cv_env_target_alias_value=
ac_cv_path_CGCOMP=/usr/bin/cg-comp
ac_cv_path_LTPRINT=/usr/bin/lt-print
ac_cv_path_PKG_CONFIG=/usr/bin/pkg-config
ac_cv_path_ac_pt_PKG_CONFIG=/usr/bin/pkg-config
ac_cv_path_install='/usr/bin/install -c'
ac_cv_path_mkdir=/bin/mkdir
ac_cv_prog_AWK=gawk
ac_cv_prog_make_make_set=yes
am_cv_make_support_nested_variables=yes
pkg_cv_APERTIUM_CFLAGS='-I/usr/include/apertium-3.3 -I/usr/lib/i386-linux-gnu/apertium-3.3/include -I/usr/include/lttoolbox-3.3 -I/usr/lib/i386-linux-gnu/lttoolbox-3.3/include -I/usr/include/libxml2  '
pkg_cv_APERTIUM_LIBS='-lapertium3 -llttoolbox3 -lxml2 -lpcre  '

## ----------------- ##
## Output variables. ##
## ----------------- ##

ACLOCAL='${SHELL} /media/sf_DGT/shared/nlp_installations/apertium-ces/missing aclocal-1.14'
AMTAR='$${TAR-tar}'
AM_BACKSLASH='\'
AM_DEFAULT_V='$(AM_DEFAULT_VERBOSITY)'
AM_DEFAULT_VERBOSITY='1'
AM_V='$(V)'
APERTIUM_CFLAGS='-I/usr/include/apertium-3.3 -I/usr/lib/i386-linux-gnu/apertium-3.3/include -I/usr/include/lttoolbox-3.3 -I/usr/lib/i386-linux-gnu/lttoolbox-3.3/include -I/usr/include/libxml2  '
APERTIUM_LIBS='-lapertium3 -llttoolbox3 -lxml2 -lpcre  '
AUTOCONF='${SHELL} /media/sf_DGT/shared/nlp_installations/apertium-ces/missing autoconf'
AUTOHEADER='${SHELL} /media/sf_DGT/shared/nlp_installations/apertium-ces/missing autoheader'
AUTOMAKE='${SHELL} /media/sf_DGT/shared/nlp_installations/apertium-ces/missing automake-1.14'
AWK='gawk'
CGCOMP='/usr/bin/cg-comp'
CYGPATH_W='echo'
DEFS='-DPACKAGE_NAME=\"apertium-ces\" -DPACKAGE_TARNAME=\"apertium-ces\" -DPACKAGE_VERSION=\"0.1.0\" -DPACKAGE_STRING=\"apertium-ces\ 0.1.0\" -DPACKAGE_BUGREPORT=\"francis.tyers@gmail.com\" -DPACKAGE_URL=\"\"'
ECHO_C=''
ECHO_N='-n'
ECHO_T=''
INSTALL_DATA='${INSTALL} -m 644'
INSTALL_PROGRAM='${INSTALL}'
INSTALL_SCRIPT='${INSTALL}'
INSTALL_STRIP_PROGRAM='$(install_sh) -c -s'
LIBOBJS=''
LIBS=''
LN_S='cp -pR'
LTLIBOBJS=''
LTPRINT='/usr/bin/lt-print'
MAKEINFO='${SHELL} /media/sf_DGT/shared/nlp_installations/apertium-ces/missing makeinfo'
MKDIR_P='/bin/mkdir -p'
PACKAGE='apertium-ces'
PACKAGE_BUGREPORT='francis.tyers@gmail.com'
PACKAGE_NAME='apertium-ces'
PACKAGE_STRING='apertium-ces 0.1.0'
PACKAGE_TARNAME='apertium-ces'
PACKAGE_URL=''
PACKAGE_VERSION='0.1.0'
PATH_SEPARATOR=':'
PKG_CONFIG='/usr/bin/pkg-config'
PKG_CONFIG_LIBDIR=''
PKG_CONFIG_PATH=':/usr/local/share/pkgconfig:/usr/local/lib/pkgconfig'
SET_MAKE=''
SHELL='/bin/bash'
STRIP=''
VERSION='0.1.0'
am__isrc=''
am__leading_dot='.'
am__tar='$${TAR-tar} chof - "$$tardir"'
am__untar='$${TAR-tar} xf -'
bindir='${exec_prefix}/bin'
build_alias=''
datadir='${datarootdir}'
datarootdir='${prefix}/share'
docdir='${datarootdir}/doc/${PACKAGE_TARNAME}'
dvidir='${docdir}'
exec_prefix='${prefix}'
host_alias=''
htmldir='${docdir}'
includedir='${prefix}/include'
infodir='${datarootdir}/info'
install_sh='${SHELL} /media/sf_DGT/shared/nlp_installations/apertium-ces/install-sh'
libdir='${exec_prefix}/lib'
libexecdir='${exec_prefix}/libexec'
localedir='${datarootdir}/locale'
localstatedir='${prefix}/var'
mandir='${datarootdir}/man'
mkdir_p='$(MKDIR_P)'
oldincludedir='/usr/include'
pdfdir='${docdir}'
prefix='/usr/local'
program_transform_name='s,x,x,'
psdir='${docdir}'
sbindir='${exec_prefix}/sbin'
sharedstatedir='${prefix}/com'
sysconfdir='${prefix}/etc'
target_alias=''

## ----------- ##
## confdefs.h. ##
## ----------- ##

/* confdefs.h */
#define PACKAGE_NAME "apertium-ces"
#define PACKAGE_TARNAME "apertium-ces"
#define PACKAGE_VERSION "0.1.0"
#define PACKAGE_STRING "apertium-ces 0.1.0"
#define PACKAGE_BUGREPORT "francis.tyers@gmail.com"
#define PACKAGE_URL ""

configure: exit 0
